<svg width="318" height="343" xmlns="http://www.w3.org/2000/svg" preserveAspectRatio="xMidYMid meet">

 <g>
  <title>background</title>
  <rect fill="none" id="canvas_background" height="402" width="582" y="-1" x="-1"/>
 </g>
 <g>
  <title>Layer 1</title>
  <g id="svg_1" fill="#000000" transform="translate(0,343) scale(0.10000000149011612,-0.10000000149011612) ">
   <path fill="#c3c3c3" id="svg_2" d="m1485,3415c-44,-16 -95,-65 -95,-93c0,-10 7,-27 15,-38c18,-26 11,-34 -29,-34c-51,0 -210,-37 -321,-74c-233,-78 -432,-202 -610,-381c-271,-270 -409,-572 -440,-962l-7,-83l1592,0l1593,0l-7,98c-20,264 -102,504 -252,730c-77,115 -280,318 -401,400c-187,127 -427,225 -638,260c-91,15 -104,20 -91,31c9,8 16,29 16,50c0,45 -27,74 -89,96c-54,19 -182,19 -236,0zm-69,-349c22,-17 16,-21 -56,-31c-25,-3 -93,-17 -152,-31c-105,-25 -107,-26 -96,-49c9,-20 -4,-43 -115,-206c-69,-101 -138,-210 -153,-241c-15,-32 -32,-58 -36,-58c-5,0 -16,16 -25,35c-21,44 -26,35 147,280c70,99 130,186 134,192c6,10 -211,-59 -286,-92c-14,-6 -18,-2 -18,18c0,60 73,91 353,151c233,50 272,54 303,32zm293,-5c8,-5 17,-24 20,-43l6,-35l60,13c33,7 68,16 79,20c14,5 17,3 14,-11c-5,-31 -64,-57 -138,-63c-68,-5 -68,-5 -152,-77c-88,-77 -133,-144 -145,-218c-5,-32 -3,-37 15,-37c22,0 116,67 172,122c19,19 59,65 88,101c39,50 58,67 76,67c43,0 39,-19 -16,-88c-68,-84 -138,-186 -138,-201c0,-22 41,14 143,129c143,161 153,171 170,164c30,-11 27,-37 -12,-98c-37,-60 -101,-180 -101,-191c0,-12 43,18 110,76c47,40 70,67 70,82c0,70 142,183 185,147c8,-7 15,-18 15,-26c0,-24 -60,-82 -104,-100l-43,-18l23,-45c29,-54 30,-66 1,-115c-25,-44 -77,-76 -124,-76c-35,0 -67,25 -59,46c8,20 -2,17 -36,-11c-35,-30 -40,-30 -62,-6c-24,26 -23,68 2,124c11,26 20,47 19,47c-2,0 -36,-40 -76,-90c-41,-49 -83,-93 -94,-96c-15,-5 -28,2 -49,25c-15,17 -28,38 -28,46c0,10 -20,-1 -55,-30c-67,-54 -88,-56 -115,-12c-28,45 -26,110 5,176c14,30 24,56 21,58c-2,2 -15,1 -28,-2c-17,-5 -32,-23 -53,-67c-34,-71 -121,-170 -165,-188c-42,-17 -77,-1 -96,46c-20,47 -10,91 36,162c69,108 140,160 181,133c10,-6 25,-11 33,-11c8,0 21,-9 28,-19c11,-15 22,-18 59,-14c37,4 48,11 67,39c25,39 22,54 -13,54c-31,0 -55,10 -55,22c0,7 22,9 60,5l59,-5l49,49c49,49 65,56 91,40zm42,-561c36,-20 19,-27 -79,-33c-96,-7 -173,-18 -264,-38c-45,-10 -47,-12 -42,-39c7,-31 0,-44 -96,-175c-36,-49 -69,-95 -72,-101c-5,-7 14,-6 55,3c71,15 105,10 136,-18c29,-28 19,-39 -37,-39c-46,0 -173,-16 -202,-25c-20,-6 -98,-130 -112,-177c-14,-46 -32,-49 -47,-7c-16,47 -14,59 19,109c16,24 28,45 26,47c-1,2 -29,-6 -61,-17c-75,-26 -78,-25 -61,8c12,24 29,33 96,53l82,24l87,120c48,66 102,142 120,168l32,48l-28,-7c-66,-16 -203,-68 -261,-100c-34,-19 -65,-34 -67,-34c-11,0 -4,47 11,68c22,32 77,57 201,92c218,62 510,98 564,70zm907,-20c2,-18 -12,-43 -51,-90c-129,-155 -282,-380 -259,-380c5,0 47,34 93,76c46,41 94,82 107,91c42,29 36,3 -9,-45c-25,-26 -71,-77 -103,-114c-66,-76 -88,-88 -118,-62c-20,19 -21,54 -3,99c5,11 -10,-3 -33,-31c-46,-57 -82,-84 -111,-84c-26,0 -71,56 -71,89c0,29 40,99 98,170c24,30 30,43 18,38c-10,-4 -32,-7 -50,-7c-30,0 -34,-4 -55,-56c-49,-116 -165,-234 -232,-234c-18,0 -36,10 -53,31c-46,54 -31,141 42,238c20,27 22,33 8,28c-10,-4 -33,-7 -52,-7c-19,0 -34,-5 -34,-11c0,-21 -51,-114 -92,-166c-47,-61 -120,-113 -159,-113c-18,0 -36,10 -53,31c-50,59 -30,148 57,254c77,92 134,125 174,99c12,-8 29,-14 37,-14c8,0 22,-10 30,-22c15,-21 19,-21 87,-11c39,6 79,19 88,27c29,27 77,36 98,20c10,-7 26,-14 35,-14c9,0 24,-10 32,-22c15,-21 19,-21 85,-11c44,7 83,20 107,37c52,35 99,35 117,0l13,-26l90,111c89,111 116,129 122,81z"/>
   <path fill="#c3c3c3" id="svg_3" d="m1675,3000c-10,-11 -13,-20 -8,-20c13,0 38,29 31,35c-3,3 -13,-4 -23,-15z"/>
   <path fill="#c3c3c3" id="svg_4" d="m1608,2923c-29,-34 -30,-48 -2,-21c15,15 26,30 23,33c-3,3 -13,-3 -21,-12z"/>
   <path fill="#c3c3c3" id="svg_5" d="m2118,2852c-43,-39 -33,-49 11,-11c19,16 32,31 29,35c-3,3 -21,-8 -40,-24z"/>
   <path fill="#c3c3c3" id="svg_6" d="m1241,2795c-66,-71 -101,-130 -101,-170c0,-43 36,-31 100,35c32,32 71,80 86,106c25,42 26,47 11,56c-10,5 -17,16 -17,23c0,27 -17,16 -79,-50z"/>
   <path fill="#c3c3c3" id="svg_7" d="m2001,2686c-43,-44 -44,-45 -27,-70c21,-33 59,-34 80,-4c19,26 20,53 3,91l-12,28l-44,-45z"/>
   <path fill="#c3c3c3" id="svg_8" d="m2365,2271c-43,-26 -158,-151 -191,-206c-29,-51 -23,-76 14,-56c33,17 212,214 219,239c8,35 -8,44 -42,23z"/>
   <path fill="#c3c3c3" id="svg_9" d="m1616,2208c-49,-49 -86,-97 -102,-131c-23,-51 -24,-87 -2,-87c37,0 142,98 198,186c26,42 28,49 14,57c-8,5 -19,18 -24,30c-7,20 -14,16 -84,-55z"/>
   <path fill="#c3c3c3" id="svg_10" d="m1945,2198c-69,-73 -120,-163 -109,-192c3,-9 10,-16 16,-16c38,0 143,100 198,188l27,44l-24,24c-13,13 -28,24 -32,24c-5,0 -39,-32 -76,-72z"/>
   <path fill="#c3c3c3" id="svg_11" d="m29,1631c-25,-25 -29,-37 -29,-84c0,-45 5,-61 26,-86l26,-31l1533,0l1534,0l26,23c33,27 45,100 25,147c-26,64 79,60 -1590,60l-1522,0l-29,-29zm2782,-21c10,-6 19,-17 19,-25c0,-19 -8,-19 -26,0c-24,24 -61,18 -81,-11c-15,-24 -15,-29 -2,-53c17,-31 59,-39 83,-16c9,9 21,15 28,13c24,-8 -31,-48 -66,-48c-39,0 -76,37 -76,75c0,12 9,34 21,49c22,28 64,35 100,16zm-516,-75l0,-40l-71,-3c-88,-4 -124,9 -124,42c0,37 25,46 115,43l80,-2l0,-40zm226,35c11,-6 19,-21 19,-36c0,-32 -32,-44 -121,-44l-69,0l0,45l0,45l76,0c41,0 84,-5 95,-10zm344,-25c0,-5 -21,-11 -47,-13c-39,-3 -48,0 -48,13c0,13 9,16 48,13c26,-2 47,-7 47,-13z"/>
   <path fill="#c3c3c3" id="svg_12" d="m0,1340c0,-16 115,-244 168,-334c113,-189 293,-393 457,-516c94,-71 258,-157 367,-193c136,-46 224,-60 413,-66l179,-6l63,-100c35,-55 67,-106 72,-114c7,-11 30,-3 115,44c58,32 106,63 106,69c0,6 -93,151 -207,321l-208,310l-94,7c-335,26 -561,180 -762,519l-41,69l-314,0c-211,0 -314,-3 -314,-10zm1798,-1118c27,-35 1,-92 -42,-92c-27,0 -40,9 -55,38c-30,57 56,106 97,54z"/>
   <path fill="#c3c3c3" id="svg_13" d="m1663,1340c-29,-12 -53,-60 -53,-105c0,-21 18,-81 40,-136c22,-54 47,-137 56,-183c16,-80 16,-89 0,-156l-17,-70l98,-152c181,-280 186,-286 217,-292c53,-11 220,-6 287,8c203,43 307,169 464,559c24,59 58,125 76,148c17,22 98,90 179,150c189,141 204,167 117,212c-116,60 -304,9 -499,-135c-46,-34 -140,-116 -209,-183c-135,-131 -204,-175 -273,-175c-54,0 -119,33 -161,82c-42,50 -104,168 -140,268c-31,89 -66,137 -111,156c-38,16 -41,16 -71,4z"/>
  </g>
 </g>
</svg>